Text analysis
…
## Joining, by = "word"
## Joining, by = "word"

        paulSentiment

## Source: local data frame [112 x 5]
## Groups: document, index [112]
## 
##                                    document index negative positive
##                                       <chr> <dbl>    <dbl>    <dbl>
## 1  Discoveries of the Census of Marine Life     0        3        6
## 2  Discoveries of the Census of Marine Life     1       18        9
## 3  Discoveries of the Census of Marine Life     2       13       24
## 4  Discoveries of the Census of Marine Life     3        3       21
## 5  Discoveries of the Census of Marine Life     4        7       32
## 6  Discoveries of the Census of Marine Life     5       13       16
## 7  Discoveries of the Census of Marine Life     6       12       10
## 8  Discoveries of the Census of Marine Life     7        9       16
## 9  Discoveries of the Census of Marine Life     8        9       10
## 10 Discoveries of the Census of Marine Life     9        7        4
## # ... with 102 more rows, and 1 more variables: sentiment <dbl>
…
